\relax 
\babel@aux{croatian}{}
\@writefile{toc}{\contentsline {chapter}{\numberline {1}Uvod}{1}}
\@writefile{lof}{\addvspace {10\p@ }}
\@writefile{lot}{\addvspace {10\p@ }}
\@writefile{toc}{\contentsline {chapter}{\numberline {2}Teorija}{4}}
\@writefile{lof}{\addvspace {10\p@ }}
\@writefile{lot}{\addvspace {10\p@ }}
\@writefile{lof}{\contentsline {figure}{\numberline {2.1}{\ignorespaces Zamu\IeC {\'c}ivanje usrednjavanjem u Matlabu}}{5}}
\@writefile{toc}{\contentsline {section}{\numberline {2.1}Zamu\IeC {\'c}ivanje}{5}}
\@writefile{lof}{\contentsline {figure}{\numberline {2.2}{\ignorespaces Filtriranje medijan filtrom u OpenCV-u}}{6}}
\@writefile{toc}{\contentsline {section}{\numberline {2.2}Degradacija}{6}}
\@writefile{lof}{\contentsline {figure}{\numberline {2.3}{\ignorespaces Cannyjev detektor rubova - Matlab}}{7}}
\@writefile{toc}{\contentsline {section}{\numberline {2.3}Detekcija rubova}{7}}
\@writefile{lof}{\contentsline {figure}{\numberline {2.4}{\ignorespaces Cannyjev operator - Python i OpenCV}}{8}}
\@writefile{lof}{\contentsline {figure}{\numberline {2.5}{\ignorespaces Sobelov operator - Python i OpenCV}}{8}}
\@writefile{toc}{\contentsline {section}{\numberline {2.4}Houghova transformacija}{9}}
\@writefile{toc}{\contentsline {section}{\numberline {2.5}Mogu\IeC {\'c}a pobolj\IeC {\v s}anja}{10}}
\@writefile{toc}{\contentsline {chapter}{\numberline {3}Implementacija}{11}}
\@writefile{lof}{\addvspace {10\p@ }}
\@writefile{lot}{\addvspace {10\p@ }}
\@writefile{lol}{\contentsline {lstlisting}{code/maze\textunderscore segmentation.m}{11}}
\@writefile{lol}{\contentsline {lstlisting}{code/maze\textunderscore segmentation.py}{15}}
\@writefile{toc}{\contentsline {chapter}{\numberline {4}Zaklju\IeC {\v c}ak}{16}}
\@writefile{lof}{\addvspace {10\p@ }}
\@writefile{lot}{\addvspace {10\p@ }}
