\headcommand {\slideentry {0}{0}{1}{1/1}{}{0}}
\headcommand {\beamer@framepages {1}{1}}
\headcommand {\slideentry {0}{0}{2}{2/2}{}{0}}
\headcommand {\beamer@framepages {2}{2}}
\headcommand {\beamer@sectionpages {1}{2}}
\headcommand {\beamer@subsectionpages {1}{2}}
\headcommand {\sectionentry {1}{Uvod}{3}{Uvod}{0}}
\headcommand {\slideentry {1}{0}{1}{3/3}{}{0}}
\headcommand {\beamer@framepages {3}{3}}
\headcommand {\beamer@sectionpages {3}{3}}
\headcommand {\beamer@subsectionpages {3}{3}}
\headcommand {\sectionentry {2}{Zamu\IeC {\'c}ivanje}{4}{Zamu\IeC {\'c}ivanje}{0}}
\headcommand {\slideentry {2}{0}{1}{4/4}{}{0}}
\headcommand {\beamer@framepages {4}{4}}
\headcommand {\slideentry {2}{0}{2}{5/5}{}{0}}
\headcommand {\beamer@framepages {5}{5}}
\headcommand {\beamer@sectionpages {4}{5}}
\headcommand {\beamer@subsectionpages {4}{5}}
\headcommand {\sectionentry {3}{Degradacija}{6}{Degradacija}{0}}
\headcommand {\slideentry {3}{0}{1}{6/6}{}{0}}
\headcommand {\beamer@framepages {6}{6}}
\headcommand {\slideentry {3}{0}{2}{7/7}{}{0}}
\headcommand {\beamer@framepages {7}{7}}
\headcommand {\beamer@sectionpages {6}{7}}
\headcommand {\beamer@subsectionpages {6}{7}}
\headcommand {\sectionentry {4}{Detekcija rubova}{8}{Detekcija rubova}{0}}
\headcommand {\slideentry {4}{0}{1}{8/8}{}{0}}
\headcommand {\beamer@framepages {8}{8}}
\headcommand {\slideentry {4}{0}{2}{9/9}{}{0}}
\headcommand {\beamer@framepages {9}{9}}
\headcommand {\beamer@sectionpages {8}{9}}
\headcommand {\beamer@subsectionpages {8}{9}}
\headcommand {\sectionentry {5}{Segmentacija}{10}{Segmentacija}{0}}
\headcommand {\slideentry {5}{0}{1}{10/10}{}{0}}
\headcommand {\beamer@framepages {10}{10}}
\headcommand {\slideentry {5}{0}{2}{11/11}{}{0}}
\headcommand {\beamer@framepages {11}{11}}
\headcommand {\slideentry {5}{0}{3}{12/12}{}{0}}
\headcommand {\beamer@framepages {12}{12}}
\headcommand {\beamer@sectionpages {10}{12}}
\headcommand {\beamer@subsectionpages {10}{12}}
\headcommand {\sectionentry {6}{Mogu\IeC {\'c}a pobolj\IeC {\v s}anja}{13}{Mogu\IeC {\'c}a pobolj\IeC {\v s}anja}{0}}
\headcommand {\slideentry {6}{0}{1}{13/13}{}{0}}
\headcommand {\beamer@framepages {13}{13}}
\headcommand {\slideentry {6}{0}{2}{14/14}{}{0}}
\headcommand {\beamer@framepages {14}{14}}
\headcommand {\beamer@partpages {1}{14}}
\headcommand {\beamer@subsectionpages {13}{14}}
\headcommand {\beamer@sectionpages {13}{14}}
\headcommand {\beamer@documentpages {14}}
\headcommand {\gdef \inserttotalframenumber {14}}
\headcommand {\slideentry {6}{0}{3}{15/15}{}{0}}
\headcommand {\beamer@framepages {15}{15}}
