\babel@toc {croatian}{}
\beamer@sectionintoc {1}{Uvod}{3}{0}{1}
\beamer@sectionintoc {2}{Zamu\IeC {\'c}ivanje}{4}{0}{2}
\beamer@sectionintoc {3}{Degradacija}{6}{0}{3}
\beamer@sectionintoc {4}{Detekcija rubova}{8}{0}{4}
\beamer@sectionintoc {5}{Segmentacija}{10}{0}{5}
\beamer@sectionintoc {6}{Mogu\IeC {\'c}a pobolj\IeC {\v s}anja}{13}{0}{6}
